<?xml version="1.0" encoding="utf-8"?>
<!-- Svg Vector Icons : http://www.onlinewebfonts.com/icon -->
<!DOCTYPE svg PUBLIC "-//W3C//DTD SVG 1.1//EN" "http://www.w3.org/Graphics/SVG/1.1/DTD/svg11.dtd">
<svg version="1.1" xmlns="http://www.w3.org/2000/svg" xmlns:xlink="http://www.w3.org/1999/xlink" x="0px" y="0px" viewBox="0 0 1000 1000" enable-background="new 0 0 1000 1000" xml:space="preserve">
<metadata> Svg Vector Icons : http://www.onlinewebfonts.com/icon </metadata>
<g><g transform="translate(0.000000,512.000000) scale(0.100000,-0.100000)"><path d="M806.9,4969.6c-63.2-63.2-70.8-124.5-23-193.4c59.4-88.1,509.3-584,549.6-607c65.1-38.3,126.4-28.7,185.7,30.6c63.2,63.2,70.8,124.5,23,193.4c-46,68.9-461.5,538.1-520.8,587.9C952.4,5042.4,875.8,5036.6,806.9,4969.6z"/><path d="M2118.5,4979.2c-109.1-93.8-105.3-103.4,471-921c289.1-411.7,622.3-882.7,741-1047.4c333.2-465.3,396.4-628.1,352.3-888.5c-61.3-352.3-333.2-622.3-685.5-679.8c-241.3-40.2-428.9,28.7-781.2,281.5c-114.9,84.2-589.8,419.3-1051.2,744.9C242,3118,242,3118,146.2,3006.9c-57.4-65.1-59.4-149.4-1.9-208.7c23-24.9,304.5-229.8,626.1-453.8c321.7-224,787-553.4,1034-729.6c620.4-440.4,756.4-503.6,1081.9-503.6c492.1-1.9,919.1,310.2,1076.1,783.2c68.9,206.8,70.8,492.1,7.7,679.8c-59.4,172.3-118.7,268.1-522.7,834.9c-193.4,271.9-522.7,739.1-731.5,1037.8c-208.7,296.8-396.4,549.6-415.5,559.1C2243,5038.6,2174,5027.1,2118.5,4979.2z"/><path d="M155.8,4318.6c-76.6-78.5-74.7-153.2,7.7-235.5C198,4048.6,332,3928,460.3,3815c178.1-157,247-206.8,287.2-206.8c105.3,0,189.6,103.4,164.7,203c-11.5,42.1-436.6,444.2-563,530.4C280.3,4389.4,219,4381.8,155.8,4318.6z"/><path d="M1718.3,4027.5c-101.5-57.5-114.9-166.6-32.6-270c139.8-176.2,453.8-513.2,484.5-522.7c57.4-19.2,149.4,7.7,180,53.6c15.3,23,28.7,70.8,28.7,109.2c0,57.4-28.7,97.7-212.5,306.4c-116.8,132.1-229.8,258.5-252.7,281.5C1861.9,4037.1,1770,4056.2,1718.3,4027.5z"/><path d="M5279.9,3702c-492.1-46-1238.9-250.8-1334.6-363.8c-78.5-91.9-7.7-266.2,107.2-266.2c24.9,0,124.5,30.6,220.2,67c220.2,86.2,545.7,170.4,815.7,212.5c285.3,44,846.3,44,1125.9,0c256.6-40.2,262.3-42.1,262.3-105.3c0-95.7,55.5-256.6,134-392.5l80.4-136l-13.4-181.9c-13.4-206.8-40.2-350.4-78.5-423.2c-21.1-42.1-49.8-57.4-158.9-80.4c-155.1-36.4-289.1-99.6-453.8-214.5c-335.1-239.4-442.3-580.2-264.3-855.9c24.9-38.3,111.1-193.4,191.5-344.7C6156.9,163.4,6266,37.1,6434.5,14.1c222.1-30.6,407.9,153.2,654.9,645.3c145.5,291.1,183.8,344.7,239.4,344.7c84.3,0,189.6-130.2,317.9-396.4c139.8-285.3,241.3-407.9,375.3-453.8c250.8-86.2,974.6,0,1476.3,172.3c275.7,95.7,294.9,134,214.5,400.2C9417.8,1699.1,8705.5,2601,7820.8,3123.7c-235.5,137.9-564.9,293-624.2,293c-76.6,0-153.2-78.5-153.2-158.9c0-36.4,11.5-82.3,26.8-99.6c15.3-19.2,116.8-74.7,224-126.4c836.8-390.6,1539.5-1091.5,1920.6-1918.6c78.5-172.3,172.3-423.2,172.3-461.5c0-65.1-712.3-203-1041.7-203c-262.3,0-243.2-15.3-421.3,338.9c-74.7,147.4-164.7,293-214.4,348.5c-151.3,168.5-404,252.8-551.5,183.8c-97.6-46-162.8-137.9-337-469.1c-160.9-304.5-237.5-425.1-302.5-486.4c-40.2-34.5-40.2-34.5-86.2,15.3c-26.8,26.8-109.1,168.5-187.6,314c-76.6,143.6-168.5,308.3-204.9,365.7c-34.5,57.4-68.9,130.2-74.7,164.7c-28.7,180,279.6,438.5,597.4,497.9c185.7,36.4,241.3,76.6,315.9,225.9c74.7,155.1,113,333.2,126.4,616.6c13.4,252.8,19.2,229.8-137.9,497.9c-49.8,86.2-55.5,113-57.4,275.7c0,160.8-3.8,183.8-42.1,212.5C6633.7,3659.9,5762.4,3748,5279.9,3702z"/><path d="M1157.3,3479.9c-13.4-5.7-36.4-34.5-53.6-67c-55.5-105.3-26.8-147.4,275.7-415.5c247-218.3,289.1-248.9,348.5-250.8c38.3,0,86.2,13.4,109.1,28.7c46,30.6,72.8,122.5,53.6,180c-9.6,30.6-346.6,344.7-522.7,486.4C1304.7,3491.4,1222.4,3506.7,1157.3,3479.9z"/><path d="M2746.6,3052.9c-143.6-21.1-333.2-120.6-444.2-229.8c-114.9-116.8-206.8-298.7-229.8-457.6c-21.1-155.1,1.9-226,88.1-262.3c116.8-47.9,206.8,19.2,227.9,174.2c36.4,262.3,197.2,423.2,459.6,459.6c149.4,21.1,218.3,107.2,178.1,222.1c-19.2,53.6-113,118.7-162.8,111.1C2855.7,3068.2,2802.1,3060.5,2746.6,3052.9z"/><path d="M1842.8,1249.1c-26.8-13.4-70.8-70.8-99.6-130.2c-76.6-155.1-189.6-511.3-201.1-633.8c-9.6-99.6-7.7-109.1,42.1-147.4c28.7-23,76.6-42.1,107.2-42.1c91.9,0,143.6,68.9,199.1,268.1c28.7,99.6,80.4,252.8,116.8,342.8c76.6,191.5,80.4,231.7,23,296.8C1976.8,1262.5,1906,1279.8,1842.8,1249.1z"/><path d="M3920.4,594.3c-273.8-67-434.7-250.8-404-457.6c7.7-44.1,17.2-149.4,23-233.6c13.4-189.6-28.7-333.2-160.8-545.7c-143.6-233.6-473-551.5-599.3-584c-109.1-26.8-193.4,164.7-191.5,436.6c0,185.7,21.1,264.2,93.8,367.6c72.8,101.5,88.1,166.6,55.5,245.1c-80.4,189.6-379.1,279.6-924.9,281.5c-377.2,0-375.3,0-400.2-448.1c-36.4-658.7,124.5-1428.4,428.9-2050.8c218.3-444.2,448.1-767.8,802.3-1125.9c335.1-338.9,656.8-574.5,1076.1-787c373.4-189.6,894.2-371.5,990-346.6c65.1,15.3,120.6,86.2,120.6,153.2c0,99.6-44,137.9-225.9,191.5c-723.8,218.3-1273.4,547.6-1767.4,1057c-524.7,540-871.2,1200.6-1022.5,1943.5c-57.4,287.2-95.7,750.6-76.6,947.8l13.4,145.5l212.5-11.5c118.7-5.8,258.5-19.2,314-32.6l97.6-21.1l-44-99.6c-164.7-363.8-59.4-944,201.1-1116.3c93.8-63.2,237.4-78.5,352.3-40.2c252.8,86.2,685.5,522.7,859.8,865.5c120.6,241.3,166.6,564.9,111.1,771.7c-13.4,44-17.2,90-11.5,99.6c32.6,51.7,139.8,84.3,277.6,84.3c118.7,0,158.9-7.7,227.9-46c132.1-74.7,158.9-143.6,149.4-375.3c-11.5-235.5-42.1-312.1-195.3-486.4c-124.5-141.7-189.6-258.5-229.8-415.5c-70.8-270-5.7-438.5,227.9-587.9c124.5-80.4,270-225.9,317.9-315.9c59.4-118.7,80.4-281.5,55.5-453.8c-21.1-147.4-51.7-252.7-170.4-585.9c-74.7-210.6-90-365.7-49.8-547.6c84.2-400.2,428.9-792.7,1032.1-1171.9l132.1-82.3l229.8,11.5c1062.7,57.5,1999.1,465.3,2759.2,1198.7c668.3,647.2,1110.6,1501.2,1248.5,2414.6c68.9,459.6,53.6,1173.8-26.8,1282.9c-47.9,67-118.7,88.1-189.6,59.4c-95.7-40.2-107.2-84.2-82.3-331.3c68.9-704.6-57.4-1417-363.8-2064.2c-314-660.6-842.5-1252.3-1464.8-1642.9c-541.9-338.9-1175.7-541.9-1842.1-589.8l-176.2-13.4l-111.1,72.8c-484.5,319.8-771.7,647.2-827.2,945.9c-24.9,134-9.6,220.2,80.4,459.6c191.5,511.2,210.6,861.7,61.3,1166.1c-78.5,162.8-241.3,337-419.3,455.7c-93.8,61.3-116.8,86.2-120.6,134c-9.6,101.5,65.1,262.3,189.6,402.1c139.8,158.9,203,275.7,239.4,446.2c36.4,172.3,34.5,434.7-3.8,553.4C4693.9,504.3,4303.3,688.1,3920.4,594.3z"/><path d="M7922.3-539.3c-65.1-13.4-453.8-107.2-564.9-135.9c-95.7-24.9-122.5-46-291.1-220.2l-185.7-193.4l-116.8,32.5c-273.8,76.6-536.1-76.6-536.1-314c0-158.9,59.3-220.2,356.1-371.5c235.5-118.7,423.2-235.5,522.8-321.7c168.5-147.5,469.1-162.8,739.1-38.3c166.6,78.5,266.2,183.8,356.2,381.1c63.2,137.9,105.3,193.4,262.3,358.1c208.7,212.6,266.2,319.8,247,444.2c-24.9,153.2-181.9,308.3-363.8,361.9C8259.3-529.7,8016.2-520.2,7922.3-539.3z M8282.3-878.2c134-57.4,130.2-68.9-86.2-296.8c-107.2-114.9-212.5-237.4-229.8-273.8c-17.2-36.4-55.5-114.9-82.3-176.2c-57.5-126.4-151.3-193.4-308.3-222.1c-136-26.8-208.7-3.8-367.6,116.8c-76.6,57.4-245.1,160.8-375.3,227.9c-226,116.8-293,170.4-158.9,128.3c271.9-84.3,312.1-70.8,561,187.7c164.7,172.3,201.1,201.1,268.1,210.6c40.2,7.7,147.5,32.6,237.5,57.4c90,23,183.8,47.9,210.6,51.7C8058.3-849.5,8224.9-855.3,8282.3-878.2z"/><path d="M5622.6-2948.2c-291-135.9-484.4-517-373.4-733.4c74.7-149.3,241.3-235.5,450-235.5c285.3,0,507.5,178.1,509.4,404c0,86.2-49.8,256.6-101.5,342.8C5952-2909.9,5825.6-2852.4,5622.6-2948.2z M5831.3-3361.7c65.1-130.2,65.1-164.7-5.7-201.1c-101.5-53.6-287.2-23-287.2,46c0,67,174.2,277.7,220.2,264.2C5768.2-3254.5,5800.7-3304.3,5831.3-3361.7z"/></g></g>
</svg>